%YAML 1.1
%TAG !u! tag:unity3d.com,2011:
--- !u!1045 &1
EditorBuildSettings:
  m_ObjectHideFlags: 0
  serializedVersion: 2
  m_Scenes:
  - enabled: 0
    path: 
    guid: d6406015093ed39469e70e3fa07f7d09
  - enabled: 0
    path: Assets/_Scenes/MiniGame.unity
    guid: 55569891a5141fa459d4c28492f82936
  - enabled: 0
    path: Assets/GoogleVR/Demos/Scenes/VideoDemo.unity
    guid: c79d901ffb34f428eadaa3a7269a6c7c
  - enabled: 0
    path: Assets/GoogleVR/Demos/Scenes/ScrollingUIDemo.unity
    guid: 6fba7be6829dc4f879b3d4c41cce6ab7
  - enabled: 0
    path: Assets/_Scenes/slider.unity
    guid: b065533d7a30c0640adbc71ef14b8bc1
  - enabled: 1
    path: Assets/_Scenes/Pool.unity
    guid: b19c8a9cb513a0f49a4e97dddd7021f8
